\relax 
\babel@aux{english}{}
\@writefile{toc}{\contentsline {section}{\numberline {1}Text Formatting}{1}}
\@writefile{toc}{\contentsline {subsection}{\numberline {1.1}Quotes}{1}}
\@writefile{toc}{\contentsline {subsection}{\numberline {1.2}Dots and Dashes}{1}}
\@writefile{toc}{\contentsline {subsection}{\numberline {1.3}Accents}{1}}
\@writefile{toc}{\contentsline {subsection}{\numberline {1.4}Symbols}{2}}
\@writefile{toc}{\contentsline {subsection}{\numberline {1.5}Emphasizing Text}{2}}
\@writefile{toc}{\contentsline {subsection}{\numberline {1.6}Font styles}{2}}
\@writefile{toc}{\contentsline {subsection}{\numberline {1.7}Font sizes}{3}}
