\contentsline {chapter}{\numberline {1}Absolute beginners}{1}
\contentsline {section}{\numberline {1.1}The \LaTeX {} source}{1}
\contentsline {subsection}{\numberline {1.1.1}Hello World!}{1}
\contentsline {subsection}{\numberline {1.1.2}What does it all mean?}{2}
\contentsline {section}{\numberline {1.2}Generating the document}{2}
\contentsline {section}{\numberline {1.3}Viewing the document}{3}
\contentsline {subsection}{\numberline {1.3.1}Converting to Postscript}{3}
\contentsline {subsection}{\numberline {1.3.2}Converting to PDF}{3}
\contentsline {section}{\numberline {1.4}Summary}{3}
\contentsline {chapter}{\numberline {2}Document structure}{5}
\contentsline {section}{\numberline {2.1}Preamble}{5}
\contentsline {section}{\numberline {2.2}Top Matter}{6}
\contentsline {section}{\numberline {2.3}Abstract}{6}
\contentsline {section}{\numberline {2.4}Sectioning commands}{7}
\contentsline {section}{\numberline {2.5}The bibliography}{7}
\contentsline {chapter}{\numberline {A}History of \LaTeX }{11}
