\relax 
\@writefile{toc}{\contentsline {chapter}{\numberline {1}Absolute beginners}{1}}
\@writefile{lof}{\addvspace {10\p@ }}
\@writefile{lot}{\addvspace {10\p@ }}
\@writefile{toc}{\contentsline {section}{\numberline {1.1}The \LaTeX  {} source}{1}}
\@writefile{toc}{\contentsline {subsection}{\numberline {1.1.1}Hello World!}{1}}
\@writefile{toc}{\contentsline {subsection}{\numberline {1.1.2}What does it all mean?}{2}}
\@writefile{toc}{\contentsline {section}{\numberline {1.2}Generating the document}{2}}
\@writefile{toc}{\contentsline {section}{\numberline {1.3}Viewing the document}{3}}
\@writefile{toc}{\contentsline {subsection}{\numberline {1.3.1}Converting to Postscript}{3}}
\@writefile{toc}{\contentsline {subsection}{\numberline {1.3.2}Converting to PDF}{3}}
\@writefile{toc}{\contentsline {section}{\numberline {1.4}Summary}{3}}
\@writefile{toc}{\contentsline {chapter}{\numberline {2}Document structure}{5}}
\@writefile{lof}{\addvspace {10\p@ }}
\@writefile{lot}{\addvspace {10\p@ }}
\@writefile{toc}{\contentsline {section}{\numberline {2.1}Preamble}{5}}
\@writefile{toc}{\contentsline {section}{\numberline {2.2}Top Matter}{6}}
\@writefile{toc}{\contentsline {section}{\numberline {2.3}Abstract}{6}}
\@writefile{lot}{\contentsline {table}{\numberline {2.1}{\ignorespaces Possible section commands.\G@refundefinedtrue {\unhbox \voidb@x \hbox {\normalfont  \bfseries  ??}}\GenericWarning  {               }{LaTeX Warning: Reference `table:sections' on page 7 undefined}}}{7}}
\@writefile{toc}{\contentsline {section}{\numberline {2.4}Sectioning commands}{7}}
\@writefile{toc}{\contentsline {section}{\numberline {2.5}The bibliography}{7}}
\@writefile{toc}{\contentsline {chapter}{\numberline {A}History of \LaTeX  }{11}}
\@writefile{lof}{\addvspace {10\p@ }}
\@writefile{lot}{\addvspace {10\p@ }}
