\relax 
\@writefile{toc}{\contentsline {section}{\numberline {1}Text environments}{1}}
\@writefile{lot}{\contentsline {table}{\numberline {1}{\ignorespaces Ways to use the text maths enviroment}}{1}}
\@writefile{toc}{\contentsline {section}{\numberline {2}Displayed environments}{1}}
\@writefile{toc}{\contentsline {subsection}{\numberline {2.1}\texttt  {displaymath}}{1}}
\@writefile{toc}{\contentsline {subsection}{\numberline {2.2}\texttt  {equation}}{1}}
\@writefile{lot}{\contentsline {table}{\numberline {2}{\ignorespaces Ways to use the displayed maths enviroment}}{2}}
\newlabel{binomial}{{1}{2}}
