# Fdb version 3
["pdflatex"] 1526195788 "/home/erick/Documents/My Data/Kuliah/Semester 6/KerjaPraktek/LEARN/4_importing_images/import.tex" "import.pdf" "import" 1526378647
  "/etc/texmf/web2c/texmf.cnf" 1525869256 475 c0e671620eb5563b2130f56340a5fde8 ""
  "/home/erick/Documents/My Data/Kuliah/Semester 6/KerjaPraktek/LEARN/4_importing_images/import.tex" 1526195773 1790 78c37ba55bbe9f76ef23e2c5b28994f4 ""
  "/usr/share/texlive/texmf-dist/fonts/enc/dvips/base/8r.enc" 1480098666 4850 80dc9bab7f31fb78a000ccfed0e27cab ""
  "/usr/share/texlive/texmf-dist/fonts/map/fontname/texfonts.map" 1511824771 3332 103109f5612ad95229751940c61aada0 ""
  "/usr/share/texlive/texmf-dist/fonts/tfm/adobe/courier/pcrr7t.tfm" 1480098688 960 379cc0019370a9e0208a0a3f949f847a ""
  "/usr/share/texlive/texmf-dist/fonts/tfm/adobe/courier/pcrr8r.tfm" 1480098688 1292 bd42be2f344128bff6d35d98474adfe3 ""
  "/usr/share/texlive/texmf-dist/fonts/tfm/adobe/times/ptmr7t.tfm" 1480098689 2124 2601a75482e9426d33db523edf23570a ""
  "/usr/share/texlive/texmf-dist/fonts/tfm/adobe/times/ptmr8r.tfm" 1480098689 4408 25b74d011a4c66b7f212c0cc3c90061b ""
  "/usr/share/texlive/texmf-dist/fonts/tfm/public/cm/cmmi12.tfm" 1480098701 1524 4414a8315f39513458b80dfc63bff03a ""
  "/usr/share/texlive/texmf-dist/fonts/tfm/public/cm/cmmi6.tfm" 1480098701 1512 f21f83efb36853c0b70002322c1ab3ad ""
  "/usr/share/texlive/texmf-dist/fonts/tfm/public/cm/cmmi8.tfm" 1480098701 1520 eccf95517727cb11801f4f1aee3a21b4 ""
  "/usr/share/texlive/texmf-dist/fonts/tfm/public/cm/cmr12.tfm" 1480098701 1288 655e228510b4c2a1abe905c368440826 ""
  "/usr/share/texlive/texmf-dist/fonts/tfm/public/cm/cmr17.tfm" 1480098701 1292 296a67155bdbfc32aa9c636f21e91433 ""
  "/usr/share/texlive/texmf-dist/fonts/tfm/public/cm/cmr6.tfm" 1480098701 1300 b62933e007d01cfd073f79b963c01526 ""
  "/usr/share/texlive/texmf-dist/fonts/tfm/public/cm/cmr8.tfm" 1480098701 1292 21c1c5bfeaebccffdb478fd231a0997d ""
  "/usr/share/texlive/texmf-dist/fonts/tfm/public/cm/cmsy10.tfm" 1480098701 1124 6c73e740cf17375f03eec0ee63599741 ""
  "/usr/share/texlive/texmf-dist/fonts/tfm/public/cm/cmsy6.tfm" 1480098701 1116 933a60c408fc0a863a92debe84b2d294 ""
  "/usr/share/texlive/texmf-dist/fonts/tfm/public/cm/cmsy8.tfm" 1480098701 1120 8b7d695260f3cff42e636090a8002094 ""
  "/usr/share/texlive/texmf-dist/fonts/type1/urw/courier/ucrr8a.pfb" 1480098746 45758 19968a0990191524e34e1994d4a31cb6 ""
  "/usr/share/texlive/texmf-dist/fonts/type1/urw/times/utmr8a.pfb" 1480098746 46026 6dab18b61c907687b520c72847215a68 ""
  "/usr/share/texlive/texmf-dist/fonts/vf/adobe/courier/pcrr7t.vf" 1480098757 1344 6ff472164bf9de0fb2e864b28ac156d9 ""
  "/usr/share/texlive/texmf-dist/fonts/vf/adobe/times/ptmr7t.vf" 1480098758 1380 0ea3a3370054be6da6acd929ec569f06 ""
  "/usr/share/texlive/texmf-dist/tex/context/base/mkii/supp-pdf.mkii" 1480098806 71627 94eb9990bed73c364d7f53f960cc8c5b ""
  "/usr/share/texlive/texmf-dist/tex/generic/babel-english/english.ldf" 1496785618 7008 9ff5fdcc865b01beca2b0fe4a46231d4 ""
  "/usr/share/texlive/texmf-dist/tex/generic/babel/babel.def" 1518644053 67244 2dce3d67c354c8d92f638d0f8682fb73 ""
  "/usr/share/texlive/texmf-dist/tex/generic/babel/babel.sty" 1518644053 15861 065fe343082d0cd2428cf984d6b2ef66 ""
  "/usr/share/texlive/texmf-dist/tex/generic/babel/switch.def" 1518644053 12523 d80bc74bf5e02fe4304443a6de8d01be ""
  "/usr/share/texlive/texmf-dist/tex/generic/babel/txtbabel.def" 1518644053 7434 1b3955075683beb1c883a0fcf92ed2d5 ""
  "/usr/share/texlive/texmf-dist/tex/generic/oberdiek/etexcmds.sty" 1480098815 7612 729a8cc22a1ee0029997c7f74717ae05 ""
  "/usr/share/texlive/texmf-dist/tex/generic/oberdiek/ifluatex.sty" 1480098815 7324 2310d1247db0114eb4726807c8837a0e ""
  "/usr/share/texlive/texmf-dist/tex/generic/oberdiek/ifpdf.sty" 1490564930 1251 d170e11a3246c3392bc7f59595af42cb ""
  "/usr/share/texlive/texmf-dist/tex/generic/oberdiek/infwarerr.sty" 1480098815 8253 473e0e41f9adadb1977e8631b8f72ea6 ""
  "/usr/share/texlive/texmf-dist/tex/generic/oberdiek/kvdefinekeys.sty" 1480098815 5152 b67a3a964ad9851e095110c854a1d461 ""
  "/usr/share/texlive/texmf-dist/tex/generic/oberdiek/kvsetkeys.sty" 1480098815 14040 ac8866aac45982ac84021584b0abb252 ""
  "/usr/share/texlive/texmf-dist/tex/generic/oberdiek/ltxcmds.sty" 1480098815 18425 5b3c0c59d76fac78978b5558e83c1f36 ""
  "/usr/share/texlive/texmf-dist/tex/generic/oberdiek/pdftexcmds.sty" 1517006633 20151 787afc7acba22d228640bdc06ce1177c ""
  "/usr/share/texlive/texmf-dist/tex/latex/base/article.cls" 1480098821 19821 310da678527a7dfe2a02c88af38079b7 ""
  "/usr/share/texlive/texmf-dist/tex/latex/base/size10.clo" 1480098821 8292 e897c12e1e886ce77fe26afc5d470886 ""
  "/usr/share/texlive/texmf-dist/tex/latex/graphics-cfg/graphics.cfg" 1480098830 1224 978390e9c2234eab29404bc21b268d1e ""
  "/usr/share/texlive/texmf-dist/tex/latex/graphics-def/pdftex.def" 1515537368 17334 520b9b85ad8a2a48eda3f643e27a5179 ""
  "/usr/share/texlive/texmf-dist/tex/latex/graphics/graphics.sty" 1498427532 15275 7d676729b1bedd3e7f3c6717affb366c ""
  "/usr/share/texlive/texmf-dist/tex/latex/graphics/graphicx.sty" 1498427532 9066 649f2ccf62888e3d8c3e57256b70b8e1 ""
  "/usr/share/texlive/texmf-dist/tex/latex/graphics/keyval.sty" 1480098830 2594 d18d5e19aa8239cf867fa670c556d2e9 ""
  "/usr/share/texlive/texmf-dist/tex/latex/graphics/trig.sty" 1480098830 3980 0a268fbfda01e381fa95821ab13b6aee ""
  "/usr/share/texlive/texmf-dist/tex/latex/latexconfig/epstopdf-sys.cfg" 1480098833 678 4792914a8f45be57bb98413425e4c7af ""
  "/usr/share/texlive/texmf-dist/tex/latex/oberdiek/epstopdf-base.sty" 1480098836 12095 5337833c991d80788a43d3ce26bd1c46 ""
  "/usr/share/texlive/texmf-dist/tex/latex/oberdiek/grfext.sty" 1480098836 7075 2fe3d848bba95f139de11ded085e74aa ""
  "/usr/share/texlive/texmf-dist/tex/latex/oberdiek/kvoptions.sty" 1480098836 22417 1d9df1eb66848aa31b18a593099cf45c ""
  "/usr/share/texlive/texmf-dist/tex/latex/psnfss/ot1pcr.fd" 1480098837 985 1ed784d7bfe47179f3550d2303b073f8 ""
  "/usr/share/texlive/texmf-dist/tex/latex/psnfss/ot1ptm.fd" 1480098837 961 15056f4a61917ceed3a44e4ac11fcc52 ""
  "/usr/share/texlive/texmf-dist/tex/latex/psnfss/times.sty" 1480098837 857 6c716f26c5eadfb81029fcd6ce2d45e6 ""
  "/usr/share/texlive/texmf-dist/web2c/texmf.cnf" 1520210507 32485 c64754543d8ac501bea6e75e209ea521 ""
  "/usr/share/texmf/web2c/texmf.cnf" 1520210507 32485 c64754543d8ac501bea6e75e209ea521 ""
  "/var/lib/texmf/fonts/map/pdftex/updmap/pdftex.map" 1525955779 127853 b41f58aff49fe1af38af8d065f49d51c ""
  "/var/lib/texmf/web2c/pdftex/pdflatex.fmt" 1525955788 724918 0eae4d01f181a376d79e9f993a977e22 ""
  "images/chick.jpg" 1526195731 41526 6ee1af4ef42773372569f9815cbd8028 ""
  "import.aux" 1526195788 30 00c4328e8c6c75fce40642ef2bcfb215 ""
  "import.tex" 1526195773 1790 78c37ba55bbe9f76ef23e2c5b28994f4 ""
  (generated)
  "import.log"
  "import.aux"
  "import.pdf"
