\relax 
\babel@aux{english}{}
\@writefile{toc}{\contentsline {section}{\numberline {1}Paragraph Formatting}{1}}
\@writefile{toc}{\contentsline {section}{\numberline {2}Special Paragraph Environments}{1}}
\@writefile{toc}{\contentsline {subsection}{\numberline {2.1}Verbatim}{1}}
\@writefile{toc}{\contentsline {subsection}{\numberline {2.2}alltt}{1}}
\@writefile{toc}{\contentsline {subsection}{\numberline {2.3}Listing}{1}}
\@writefile{toc}{\contentsline {subsection}{\numberline {2.4}Quote and Quotation}{2}}
\@writefile{toc}{\contentsline {subsection}{\numberline {2.5}Verse}{2}}
