# Fdb version 3
["pdflatex"] 1526200907 "/home/erick/Documents/My Data/Kuliah/Semester 6/KerjaPraktek/LEARN/8_mathematics/part_1/3_matrices/matrices.tex" "matrices.pdf" "matrices" 1526200907
  "/etc/texmf/web2c/texmf.cnf" 1525869256 475 c0e671620eb5563b2130f56340a5fde8 ""
  "/home/erick/Documents/My Data/Kuliah/Semester 6/KerjaPraktek/LEARN/8_mathematics/part_1/3_matrices/matrices.tex" 1526200905 1586 c4d19007c031771d0589e191610e01b2 ""
  "/usr/share/texlive/texmf-dist/fonts/enc/dvips/base/8r.enc" 1480098666 4850 80dc9bab7f31fb78a000ccfed0e27cab ""
  "/usr/share/texlive/texmf-dist/fonts/map/fontname/texfonts.map" 1511824771 3332 103109f5612ad95229751940c61aada0 ""
  "/usr/share/texlive/texmf-dist/fonts/tfm/adobe/symbol/psyr.tfm" 1480098689 1408 5937f58aa508ea2cea4901c07d10f5fe ""
  "/usr/share/texlive/texmf-dist/fonts/tfm/adobe/times/psyro.tfm" 1480098689 1544 23a042a74981a3e4b6ce2e350e390409 ""
  "/usr/share/texlive/texmf-dist/fonts/tfm/adobe/times/ptmb7t.tfm" 1480098689 2172 fd0c924230362ff848a33632ed45dc23 ""
  "/usr/share/texlive/texmf-dist/fonts/tfm/adobe/times/ptmr7t.tfm" 1480098689 2124 2601a75482e9426d33db523edf23570a ""
  "/usr/share/texlive/texmf-dist/fonts/tfm/adobe/times/ptmr8r.tfm" 1480098689 4408 25b74d011a4c66b7f212c0cc3c90061b ""
  "/usr/share/texlive/texmf-dist/fonts/tfm/adobe/times/ptmri7t.tfm" 1480098689 2288 f478fc8fed18759effb59f3dad7f3084 ""
  "/usr/share/texlive/texmf-dist/fonts/tfm/adobe/times/ptmri8r.tfm" 1480098689 4640 532ca3305aad10cc01d769f3f91f1029 ""
  "/usr/share/texlive/texmf-dist/fonts/tfm/adobe/times/zptmcm7m.tfm" 1480098689 2232 db256afffc8202da192b4641df14d602 ""
  "/usr/share/texlive/texmf-dist/fonts/tfm/adobe/times/zptmcm7t.tfm" 1480098689 2172 1d00c2a0d10f23031be62329457a870c ""
  "/usr/share/texlive/texmf-dist/fonts/tfm/adobe/times/zptmcm7v.tfm" 1480098689 1032 20febbd0f0c9a48eb78616f897008286 ""
  "/usr/share/texlive/texmf-dist/fonts/tfm/adobe/times/zptmcm7y.tfm" 1480098689 1520 ad7b3c1a480a03b3e41b5fbb13d938f2 ""
  "/usr/share/texlive/texmf-dist/fonts/tfm/public/cm/cmex10.tfm" 1480098701 992 662f679a0b3d2d53c1b94050fdaa3f50 ""
  "/usr/share/texlive/texmf-dist/fonts/tfm/public/cm/cmmi10.tfm" 1480098701 1528 abec98dbc43e172678c11b3b9031252a ""
  "/usr/share/texlive/texmf-dist/fonts/tfm/public/cm/cmr10.tfm" 1480098701 1296 45809c5a464d5f32c8f98ba97c1bb47f ""
  "/usr/share/texlive/texmf-dist/fonts/type1/public/amsfonts/cm/cmex10.pfb" 1480098733 30251 6afa5cb1d0204815a708a080681d4674 ""
  "/usr/share/texlive/texmf-dist/fonts/type1/public/amsfonts/cm/cmmi10.pfb" 1480098733 36299 5f9df58c2139e7edcf37c8fca4bd384d ""
  "/usr/share/texlive/texmf-dist/fonts/type1/urw/times/utmr8a.pfb" 1480098746 46026 6dab18b61c907687b520c72847215a68 ""
  "/usr/share/texlive/texmf-dist/fonts/type1/urw/times/utmri8a.pfb" 1480098746 45458 a3faba884469519614ca56ba5f6b1de1 ""
  "/usr/share/texlive/texmf-dist/fonts/vf/adobe/times/ptmr7t.vf" 1480098758 1380 0ea3a3370054be6da6acd929ec569f06 ""
  "/usr/share/texlive/texmf-dist/fonts/vf/adobe/times/zptmcm7m.vf" 1480098758 1132 27520247d3fe18d4266a226b461885c2 ""
  "/usr/share/texlive/texmf-dist/fonts/vf/adobe/times/zptmcm7t.vf" 1480098758 1108 d271d6f9de4122c3f8d3b65666167fac ""
  "/usr/share/texlive/texmf-dist/fonts/vf/adobe/times/zptmcm7v.vf" 1480098758 1012 046369ac6a83af997c3aa05a43256ad5 ""
  "/usr/share/texlive/texmf-dist/tex/latex/base/article.cls" 1480098821 19821 310da678527a7dfe2a02c88af38079b7 ""
  "/usr/share/texlive/texmf-dist/tex/latex/base/size10.clo" 1480098821 8292 e897c12e1e886ce77fe26afc5d470886 ""
  "/usr/share/texlive/texmf-dist/tex/latex/moreverb/moreverb.sty" 1480098835 5863 07095464939df437145876547e980c96 ""
  "/usr/share/texlive/texmf-dist/tex/latex/psnfss/mathptmx.sty" 1480098837 4632 cd6d04f090f831ba44222ab7ccd5d2d4 ""
  "/usr/share/texlive/texmf-dist/tex/latex/psnfss/omlztmcm.fd" 1480098837 411 12564a37a279e4e0b533cdf5e03eeb7c ""
  "/usr/share/texlive/texmf-dist/tex/latex/psnfss/omsztmcm.fd" 1480098837 348 f4ce75d394e7d9ac12ca7aac4045ed77 ""
  "/usr/share/texlive/texmf-dist/tex/latex/psnfss/omxztmcm.fd" 1480098837 329 c8cddcc90b6f567b28408eb374773c9c ""
  "/usr/share/texlive/texmf-dist/tex/latex/psnfss/ot1ptm.fd" 1480098837 961 15056f4a61917ceed3a44e4ac11fcc52 ""
  "/usr/share/texlive/texmf-dist/tex/latex/psnfss/ot1ztmcm.fd" 1480098837 329 aee7226812ba4138ac67a018466b488d ""
  "/usr/share/texlive/texmf-dist/tex/latex/psnfss/times.sty" 1480098837 857 6c716f26c5eadfb81029fcd6ce2d45e6 ""
  "/usr/share/texlive/texmf-dist/tex/latex/tools/verbatim.sty" 1480098841 7264 cf839ee7f0c2bfc711b0b88970764569 ""
  "/usr/share/texlive/texmf-dist/web2c/texmf.cnf" 1520210507 32485 c64754543d8ac501bea6e75e209ea521 ""
  "/usr/share/texmf/web2c/texmf.cnf" 1520210507 32485 c64754543d8ac501bea6e75e209ea521 ""
  "/var/lib/texmf/fonts/map/pdftex/updmap/pdftex.map" 1525955779 127853 b41f58aff49fe1af38af8d065f49d51c ""
  "/var/lib/texmf/web2c/pdftex/pdflatex.fmt" 1525955788 724918 0eae4d01f181a376d79e9f993a977e22 ""
  "matrices.aux" 1526200907 8 a94a2480d3289e625eea47cd1b285758 ""
  "matrices.tex" 1526200905 1586 c4d19007c031771d0589e191610e01b2 ""
  (generated)
  "matrices.log"
  "matrices.pdf"
  "matrices.aux"
