\relax 
\babel@aux{english}{}
\@writefile{toc}{\contentsline {chapter}{Halaman Pengesahan}{i}}
\@writefile{toc}{\contentsline {chapter}{Kata Pengantar}{ii}}
\@writefile{toc}{\contentsline {chapter}{Daftar Isi}{iv}}
\@writefile{toc}{\contentsline {chapter}{Daftar Gambar}{v}}
\@writefile{toc}{\contentsline {chapter}{Daftar Tabel}{vi}}
\@writefile{toc}{\contentsline {chapter}{\numberline {I}PENDAHULUAN}{1}}
\@writefile{lof}{\addvspace {10\p@ }}
\@writefile{lot}{\addvspace {10\p@ }}
\@writefile{toc}{\contentsline {section}{\numberline {1.1}Latar Belakang}{1}}
\@writefile{toc}{\contentsline {section}{\numberline {1.2}Tujuan}{1}}
\@writefile{toc}{\contentsline {section}{\numberline {1.3}Manfaat}{2}}
\@writefile{toc}{\contentsline {section}{\numberline {1.4}Waktu dan Lokasi Kerja Praktek}{3}}
\@writefile{toc}{\contentsline {subsection}{\numberline {1.4.1}Waktu}{3}}
\@writefile{toc}{\contentsline {subsection}{\numberline {1.4.2}Lokasi}{3}}
\@writefile{toc}{\contentsline {chapter}{\numberline {II}GAMBARAN UMUM}{4}}
\@writefile{lof}{\addvspace {10\p@ }}
\@writefile{lot}{\addvspace {10\p@ }}
\@writefile{toc}{\contentsline {section}{\numberline {2.1}Sejarah Organisasi / Perusahaan}{4}}
\@writefile{lof}{\contentsline {figure}{\numberline {1}{\ignorespaces Logo Aksamedia}}{4}}
\@writefile{toc}{\contentsline {section}{\numberline {2.2}Struktur Organisasi}{5}}
\@writefile{toc}{\contentsline {section}{\numberline {2.3}Tugas dan Fungsi}{5}}
\@writefile{toc}{\contentsline {section}{\numberline {2.4}Denah Lokasi}{9}}
\@writefile{toc}{\contentsline {chapter}{\numberline {III}PELAKSANAAN KERJA PRAKTEK}{10}}
\@writefile{lof}{\addvspace {10\p@ }}
\@writefile{lot}{\addvspace {10\p@ }}
\@writefile{toc}{\contentsline {section}{\numberline {3.1}Codeigniter}{10}}
\@writefile{lof}{\contentsline {figure}{\numberline {2}{\ignorespaces Logo Codeigniter}}{10}}
\@writefile{toc}{\contentsline {section}{\numberline {3.2}Composer}{12}}
\@writefile{lof}{\contentsline {figure}{\numberline {3}{\ignorespaces Logo Composer}}{12}}
\@writefile{toc}{\contentsline {section}{\numberline {3.3}GIT}{13}}
\@writefile{lof}{\contentsline {figure}{\numberline {4}{\ignorespaces Logo GIT}}{13}}
\@writefile{toc}{\contentsline {section}{\numberline {3.4}Proses Bisnis}{13}}
\@writefile{toc}{\contentsline {section}{\numberline {3.5}Simulasi UNBK - Rasyiidu Indonesia}{13}}
\@writefile{lot}{\contentsline {table}{\numberline {1}{\ignorespaces Pembagian Modul}}{14}}
\@writefile{toc}{\contentsline {chapter}{\numberline {IV}KESIMPULAN DAN SARAN}{15}}
\@writefile{lof}{\addvspace {10\p@ }}
\@writefile{lot}{\addvspace {10\p@ }}
\@writefile{toc}{\contentsline {section}{\numberline {4.1}Kesimpulan}{15}}
\@writefile{toc}{\contentsline {chapter}{DAFTAR PUSTAKA}{16}}
