\relax 
\babel@aux{english}{}
\@writefile{lof}{\contentsline {figure}{\numberline {1}{\ignorespaces A picture of a toucan.}}{1}}
\@writefile{lof}{\contentsline {figure}{\numberline {2}{\ignorespaces A picture of the same toucan looking the other way!}}{1}}
\@writefile{lot}{\contentsline {table}{\numberline {1}{\ignorespaces A simple table}}{1}}
