\relax 
\babel@aux{english}{}
\@writefile{toc}{\contentsline {section}{\numberline {1}Extra notes}{1}}
\@writefile{toc}{\contentsline {subsection}{\numberline {1.1}Footnotes}{1}}
\@writefile{toc}{\contentsline {subsection}{\numberline {1.2}Margin notes}{1}}
