\relax 
\babel@aux{english}{}
\@writefile{toc}{\contentsline {section}{\numberline {1}List Structures}{1}}
\@writefile{toc}{\contentsline {subsection}{\numberline {1.1}Itemize}{1}}
\@writefile{toc}{\contentsline {subsection}{\numberline {1.2}Enumerate}{1}}
\@writefile{toc}{\contentsline {subsection}{\numberline {1.3}Description}{1}}
\@writefile{toc}{\contentsline {section}{\numberline {2}Nested Lists}{1}}
\@writefile{toc}{\contentsline {section}{\numberline {3}Customizing Lists}{2}}
