\relax 
\@writefile{toc}{\contentsline {section}{\numberline {1}Fractions}{1}}
\@writefile{toc}{\contentsline {section}{\numberline {2}Powers and Indices}{1}}
\@writefile{toc}{\contentsline {section}{\numberline {3}Roots}{1}}
\@writefile{toc}{\contentsline {section}{\numberline {4}Brackets}{2}}
\newlabel{wrong}{{1}{2}}
\newlabel{correct}{{2}{2}}
