\relax 
\babel@aux{english}{}
\newlabel{edge-a}{{1(a)}{1}}
\newlabel{sub@edge-a}{{(a)}{1}}
\newlabel{edge-b}{{1(b)}{1}}
\newlabel{sub@edge-b}{{(b)}{1}}
\newlabel{edge-c}{{1(c)}{1}}
\newlabel{sub@edge-c}{{(c)}{1}}
\@writefile{lof}{\contentsline {figure}{\numberline {1}{\ignorespaces Various edge detection algorithms}}{1}}
\@writefile{lof}{\contentsline {subfigure}{\numberline{(a)}{\ignorespaces {Original image}}}{1}}
\@writefile{lof}{\contentsline {subfigure}{\numberline{(b)}{\ignorespaces {After Laplace edge detection}}}{1}}
\@writefile{lof}{\contentsline {subfigure}{\numberline{(c)}{\ignorespaces {After Sobel edge detection}}}{1}}
\newlabel{edge}{{1}{1}}
\newlabel{fig:edge-a}{{2(a)}{1}}
\newlabel{sub@fig:edge-a}{{(a)}{1}}
\newlabel{fig:edge-b}{{2(b)}{1}}
\newlabel{sub@fig:edge-b}{{(b)}{1}}
\newlabel{fig:edge-c}{{2(c)}{1}}
\newlabel{sub@fig:edge-c}{{(c)}{1}}
\@writefile{lof}{\contentsline {figure}{\numberline {2}{\ignorespaces Various edge detection algorithms}}{1}}
\@writefile{lof}{\contentsline {subfigure}{\numberline{(a)}{\ignorespaces {Original image}}}{1}}
\@writefile{lof}{\contentsline {subfigure}{\numberline{(b)}{\ignorespaces {After Laplace edge detection}}}{1}}
\@writefile{lof}{\contentsline {subfigure}{\numberline{(c)}{\ignorespaces {After Sobel edge detection}}}{1}}
\newlabel{fig:edge}{{2}{1}}
