\relax 
\citation{lamport94}
\citation{knuth79}
\citation{goossens93}
\citation{rahtz89}
\citation{patashnik88}
\citation{greenwade93}
\bibstyle{plainnat}
\bibdata{sample}
\@writefile{toc}{\contentsline {section}{\numberline {1}Introduction}{1}}
\@writefile{toc}{\contentsline {section}{\numberline {2}How to learn more}{1}}
